[
  {
    "description": "    Para ver los resultados\n    Como QA quiero validar el ingreso a la aplicacion",
    "keyword": "Feature",
    "name": "Ingresar a la aplicacion userinyerface",
    "line": 1,
    "id": "ingresar-a-la-aplicacion-userinyerface",
    "tags": [],
    "uri": "features\\Login.feature",
    "elements": [
      {
        "id": "ingresar-a-la-aplicacion-userinyerface;ingreso-de-usuario-a-la-aplicacion-userinyerface",
        "keyword": "Scenario",
        "line": 6,
        "name": "Ingreso de usuario a la aplicacion userinyerface",
        "tags": [
          {
            "name": "@smoke",
            "line": 5
          }
        ],
        "type": "scenario",
        "steps": [
          {
            "arguments": [],
            "keyword": "Given ",
            "line": 7,
            "name": "que ingreso a la aplicacion de userinyerface",
            "match": {
              "location": "step_definition\\LoginSteps.ts:12"
            },
            "result": {
              "status": "passed",
              "duration": 135000000
            }
          },
          {
            "arguments": [],
            "keyword": "Then ",
            "line": 8,
            "name": "verifico las imagenes y textos de la pantalla inicial",
            "match": {
              "location": "step_definition\\LoginSteps.ts:20"
            },
            "result": {
              "status": "passed",
              "duration": 1794000000
            }
          },
          {
            "arguments": [],
            "keyword": "When ",
            "line": 9,
            "name": "hago click HERE",
            "match": {
              "location": "step_definition\\LoginSteps.ts:32"
            },
            "result": {
              "status": "passed",
              "duration": 694000000
            }
          },
          {
            "arguments": [],
            "keyword": "When ",
            "line": 10,
            "name": "elijo mis datos de ingreso",
            "match": {
              "location": "step_definition\\InicioSteps.ts:11"
            },
            "result": {
              "status": "passed",
              "duration": 6341000000
            }
          },
          {
            "arguments": [],
            "keyword": "When ",
            "line": 11,
            "name": "selecciono la imagen y 3 opciones de interes",
            "match": {
              "location": "step_definition\\OpcionesInteresSteps.ts:14"
            },
            "result": {
              "status": "passed",
              "duration": 872000000
            }
          },
          {
            "keyword": "After",
            "hidden": true,
            "match": {
              "location": "hooks\\hooks.ts:13"
            },
            "result": {
              "status": "passed",
              "duration": 0
            }
          },
          {
            "keyword": "After",
            "hidden": true,
            "match": {
              "location": "node_modules\\protractor-cucumber-framework\\lib\\resultsCapturer.js:27"
            },
            "result": {
              "status": "passed",
              "duration": 1000000
            }
          }
        ]
      }
    ]
  }
]